…
    ## `summarise()` has grouped output by 'ft', 'site', 'plot', 'asn', 'aco'. You can
    ## override using the `.groups` argument.

``` r
pc_abund
```

    ## # A tibble: 459 × 6
    ## # Groups:   ft, site, plot, asn, aco [310]
    ##    ft    site  plot    asn   aco n_ind
    ##    <chr> <chr> <chr> <dbl> <dbl> <dbl>
    ##  1 TS    SC1   SC1TS     1   202    24
    ##  2 TS    SC1   SC1TS     1   201    12
    ##  3 TS    SC1   SC1TS     1   202    12
    ##  4 MD    ER2   ER2MD     4   138     9
    ##  5 TS    TS1   TS1TS     5   230     9
    ##  6 TS    SC1   SC1TS     5   209     5
    ##  7 MD    ER2   ER2MD     4   138     4
    ##  8 MD    NSF   NSFMD     1   172     4
    ##  9 MD    NSF   NSFMD     3   175     4
    ## 10 MD    SC2   SC2MD     5   299     4
    ## # ℹ 449 more rows
…
No commas in the unique identifiers assigned to other herp species, so
we can assume there are no cases of multiple individuals per
observation.

There is no variable for forest type assigned in the `herps` dataframe,
so I will assign it based on the the plot code.

``` r
herps <- herps %>%
  mutate(ft = str_extract(plot, "(?<=.)TS|MD"))

herps
```

    ## # A tibble: 48 × 10
    ##      osn date       plot    aco species   svl    tl weight herp_species ft   
    ##    <dbl> <date>     <chr> <dbl> <chr>   <dbl> <dbl>  <dbl> <chr>        <chr>
    ##  1     1 2005-06-14 TS2TS   263 NOVI        7    NA     NA NOVI         TS   
    ##  2     2 2005-06-30 MRMD     75 THIS       NA    30     NA THIS         MD   
    ##  3     3 2005-07-01 PHMD    259 AMMA       45   100    525 AMMA         MD   
    ##  4     4 2004-07-05 WA1MD    13 RASY       NA    NA     NA RASY         MD   
    ##  5     5 2005-07-11 MRMD     73 NOVI       NA    NA     NA NOVI         MD   
    ##  6     6 2005-07-25 PHTS    244 NOVI       35    60     NA NOVI         TS   
    ##  7     7 2005-07-25 TS2MD   279 NOVI       40    80     NA NOVI         MD   
    ##  8     8 2005-07-25 TS2TS   262 NOVI       35    60     NA NOVI         TS   
    ##  9     9 2005-07-25 TS2TS   268 NOVI       35    60     NA NOVI         TS   
    ## 10    10 2005-07-25 TS2TS   263 NOVI       30    45     NA NOVI         TS   
    ## # ℹ 38 more rows
I need to duplicate these rows with `pca` \> 1 by the conditional value
of `pca` so that each row is one individual P. cinereus observation.

`uncount` seems to work here.

``` r
pc_obs <- df %>%
  uncount(pca)

pc_obs$herp_species = "PLCI"

pc_obs
```

    ## # A tibble: 323 × 51
    ##    plot  site  ft      asn lat      long  datum    ba st.ha    ts bearing aspect
    ##    <chr> <chr> <chr> <dbl> <chr>    <chr> <chr> <dbl> <dbl> <dbl> <chr>   <chr> 
    ##  1 WA1TS WA1   TS        2 "N 42\x… "W 7… NAD83  60.2   736  0.8  298     NW    
    ##  2 WA1MD WA1   MD        1 "N 42\x… "W 7… NAD83  39.4   905  0    265     W     
    ##  3 WA1MD WA1   MD        4 "N 42\x… "W 7… NAD83  41.2   566  0    268     W     
    ##  4 WA1MD WA1   MD        4 "N 42\x… "W 7… NAD83  41.2   566  0    268     W     
    ##  5 WA1MD WA1   MD        4 "N 42\x… "W 7… NAD83  41.2   566  0    268     W     
    ##  6 WA1MD WA1   MD        4 "N 42\x… "W 7… NAD83  41.2   566  0    268     W     
    ##  7 WA1MD WA1   MD        5 "N 42\x… "W 7… NAD83  22.7   905  0    280     W     
    ##  8 WA2TS WA2   TS        1 "N 42\x… "W 7… NAD83  33.5   340  1    256     W     
    ##  9 WA2TS WA2   TS        2 "N 42\x… "W 7… NAD83  45.7   283  0.31 268     W     
    ## 10 WA2TS WA2   TS        2 "N 42\x… "W 7… NAD83  45.7   283  0.31 268     W     
    ## # ℹ 313 more rows
    ## # ℹ 39 more variables: slope <chr>, canopy.cover <dbl>, cwd.no <dbl>,
    ## #   cwd.con <dbl>, vcwd <dbl>, vcwd.con <dbl>, avg.dc <dbl>, tot.snags <dbl>,
    ## #   avg.snag.ht <dbl>, avg.snag.dbh <dbl>, soil.ph <dbl>, datetime <dttm>,
    ## #   date <date>, aco <dbl>, airt <dbl>, rh <dbl>, soilt <dbl>, time <time>,
    ## #   pcn <chr>, em.aco <dbl>, osn <dbl>, other.sp <chr>, tr <dbl>,
    ## #   species <chr>, diam <dbl>, dc <dbl>, c <chr>, stem.master <dbl>, …
…
``` r
sp <- full_join(pc_obs, herps)
```

    ## Joining with `by = join_by(plot, ft, date, aco, osn, species, svl, tl,
    ## herp_species)`

``` r
sp <- sp %>%
  dplyr::select(ft, herp_species)
sp
```

    ## # A tibble: 371 × 2
    ##    ft    herp_species
    ##    <chr> <chr>       
    ##  1 TS    PLCI        
    ##  2 MD    PLCI        
    ##  3 MD    PLCI        
    ##  4 MD    PLCI        
    ##  5 MD    PLCI        
    ##  6 MD    PLCI        
    ##  7 MD    PLCI        
    ##  8 TS    PLCI        
    ##  9 TS    PLCI        
    ## 10 TS    PLCI        
    ## # ℹ 361 more rows
…
Looks like all amphibian species were detected more frequently in
hemlock stands than mixed deciduous; only the two snake species were
more frequently detected in mixed deciduous stands. Since snakes are a
separate taxonomic group and are only found in one habitat, they are
adding noise to the analysis. We will remove them for analyzing
biodiversity.

``` r
amph <- sp %>%
  filter(herp_species %in% c("AMMA", "PLCI", "NOVI", "EUBI", "RASY"))

amph
```

    ## # A tibble: 367 × 2
    ##    ft    herp_species
    ##    <chr> <chr>       
    ##  1 TS    PLCI        
    ##  2 MD    PLCI        
    ##  3 MD    PLCI        
    ##  4 MD    PLCI        
    ##  5 MD    PLCI        
    ##  6 MD    PLCI        
    ##  7 MD    PLCI        
    ##  8 TS    PLCI        
    ##  9 TS    PLCI        
    ## 10 TS    PLCI        
    ## # ℹ 357 more rows

``` r
md <- amph %>%
  filter(ft == "MD")

md
```

    ## # A tibble: 140 × 2
    ##    ft    herp_species
    ##    <chr> <chr>       
    ##  1 MD    PLCI        
    ##  2 MD    PLCI        
    ##  3 MD    PLCI        
    ##  4 MD    PLCI        
    ##  5 MD    PLCI        
    ##  6 MD    PLCI        
    ##  7 MD    PLCI        
    ##  8 MD    PLCI        
    ##  9 MD    PLCI        
    ## 10 MD    PLCI        
    ## # ℹ 130 more rows

``` r
ts <- amph %>%
  filter(ft == "TS")

ts
```

    ## # A tibble: 227 × 2
    ##    ft    herp_species
    ##    <chr> <chr>       
    ##  1 TS    PLCI        
    ##  2 TS    PLCI        
    ##  3 TS    PLCI        
    ##  4 TS    PLCI        
    ##  5 TS    PLCI        
    ##  6 TS    PLCI        
    ##  7 TS    PLCI        
    ##  8 TS    PLCI        
    ##  9 TS    PLCI        
    ## 10 TS    PLCI        
    ## # ℹ 217 more rows
…
