…
### Plethodon cinereus abundance

``` r
df %>%
  group_by(plot, site) %>%
  drop_na(pca) %>%
  filter(pca != 0) %>%
  count(pca, sort = TRUE)
```

    ## # A tibble: 43 × 4
    ## # Groups:   plot, site [29]
    ##    plot  site    pca     n
    ##    <chr> <chr> <dbl> <int>
    ##  1 SC1TS SC1       1    39
    ##  2 WSFMD WSF       1    15
    ##  3 ER2TS ER2       1    14
    ##  4 SC2TS SC2       1    13
    ##  5 SC1TS SC1       2    12
    ##  6 WA3MD WA3       1    12
    ##  7 NSFMD NSF       1    11
    ##  8 ER2MD ER2       1    10
    ##  9 TS1TS TS1       1     9
    ## 10 WA3TS WA3       1     9
    ## # ℹ 33 more rows
…
